{
    "extension_description": {
        "message": "Sustituir al agente de usuario del navegador"
    },
    "options_entries_caption": {
        "message": "Agentes de usuario"
    },
    "popup_item_options": {
        "message": "Preferencias…"
    },
    "icon_title_enabled": {
        "message": "ahora operativo"
    },
    "icon_title_disabled": {
        "message": "ahora no operativo"
    },
    "option_badge_text": {
        "message": "¿Mostrar el Agente de Usuario como Texto en el Icono?",
        "description": "Text of checkbox option to show/hide the two to four letter abbreviations displayed ontop of the browser action icon"
    },
    "option_random_jitter": {
        "message": "Varianza del Modo Aleatorio",
        "description": "Text of numeric option (0-100) for setting by how many per-cent the random-interval value should (on avarage) be varied"
    },
    "options_entries_reset": {
        "message": "Reiniciar a la configuración por defecto",
        "description": "Options page link for loading the entries defaults"
    },
    "options_entries_reset_undo_text": {
        "message": "Valores por Defecto Restaurados",
        "description": "Text of popup that is shown after the reset link has been clicked"
    },
    "options_entries_reset_undo_button": {
        "message": "Deshacer Reinicio",
        "description": "Label of button for undoing a reset (displayed below the text that asserts that the options have just been reset)"
    },
    "options_entries_switch_text": {
        "message": "Cambiar a Modo Texto",
        "description": "Options page link for switching from table to text mode"
    },
    "options_entries_switch_table": {
        "message": "Cambiar a Modo Tabla",
        "description": "Options page link for switching from text to table mode"
    },
    "options_entries_heading_label": {
        "message": "Nombre",
        "description": "Options page table editor heading for the column with user-facing User-Agent-String labels"
    },
    "options_entries_heading_category": {
        "message": "Categoría",
        "description": "Options page table editor heading for the column with general category of the given User-Agent-String"
    },
    "options_entries_heading_string": {
        "message": "Cadena de Agente",
        "description": "Options page table editor heading for the column with the actual server-reported User-Agent-Strings"
    },
    "useragent_category_desktop": {
        "message": "Escritorio",
        "description": "Default category label for browsers on desktop devices"
    },
    "useragent_category_mobile": {
        "message": "Móvil",
        "description": "Default category label for browsers on mobile devices"
    },
    "useragent_category_bot": {
        "message": "Robot",
        "description": "Default category label for search engine bots"
    },
    "useragent_category_other": {
        "message": "Otros",
        "description": "Default category label for unclassified client software"
    },
    "icon_title_random": {
        "message": "Modo Aleatorio",
        "description": "Text displayed in the browser action icon tooltip when the User-Agent header is choosen at random"
    },
    "popup_item_random": {
        "message": "Activar el Modo Aleatorio",
        "description": "The label of the menu item for enabling time-based User-Agent randomization"
    },
    "popup_item_random_categories": {
        "message": "Categorías:",
        "description": "The section header of the categories selection of random selection mode"
    },
    "popup_item_random_interval_mode_restart": {
        "message": "Solo al inicio",
        "description": "The label of the menu item for enabling the time-based User-Agent randomization only on extension and browser startup"
    },
    "popup_item_random_interval_mode_timed": {
        "message": "Cada:",
        "description": "The label of the menu item for enabling the time-based User-Agent randomization at regular intervals"
    },
    "popup_item_random_interval_unit_minutes": {
        "message": "Minuto(s)",
        "description": "A User-Agent randomization time interval"
    },
    "popup_item_random_interval_unit_hours": {
        "message": "Hora(s)",
        "description": "A User-Agent randomization time interval"
    },
    "popup_item_random_interval_unit_days": {
        "message": "Día(s)",
        "description": "A User-Agent randomization time interval"
    },
    "popup_item_default": {
        "message": "Por Defecto",
        "description": "The label of the menu item that disables the User-Agent-Overrider and lets the browser send its default User-Agent-String"
    }
}
